Apprentissage/Exemples_pratiques/exercices/compteur_synchrone/counter_trace.vcd
$date
     Mar 13, 2011       23:55:39
$end

$version
              SystemC 2.2.0 --- Sep  1 2009 15:55:03
$end

$timescale
     1 ps
$end

$scope module SystemC $end
$var wire    1  aaa  clk       $end
$var wire    1  aab  reset       $end
$var wire    8  aac  data [7:0]  $end
$upscope $end
$enddefinitions  $end

$comment
All initial values are dumped below at time 0 sec = 0 timescale units.
$end

$dumpvars
0aaa
0aab
b0 aac
$end

#1000
1aaa

#2000
0aaa
1aab

#3000
1aaa
b1 aac

#4000
0aaa

#5000
1aaa
b10 aac

#6000
0aaa
0aab

#7000
1aaa
b0 aac

#8000
0aaa
1aab

#9000
1aaa
b1 aac

#10000
0aaa

#11000
1aaa
b10 aac

#12000
0aaa

#13000
1aaa
b11 aac

#14000
0aaa

#15000
1aaa
b100 aac

#16000
0aaa

#17000
1aaa
b101 aac

#18000
0aaa

#19000
1aaa
b110 aac

#20000
0aaa

#21000
1aaa
b111 aac

#22000
0aaa

#23000
1aaa
b1000 aac

#24000
0aaa

#25000
1aaa
b1001 aac

#26000
0aaa

#27000
1aaa
b1010 aac

#28000
0aaa

#29000
1aaa
b1011 aac

#30000
0aaa

#31000
1aaa
b1100 aac

#32000
0aaa

#33000
1aaa
b1101 aac

#34000
0aaa

#35000
1aaa
b1110 aac

#36000
0aaa

#37000
1aaa
b1111 aac

#38000
0aaa

#39000
1aaa
b10000 aac

#40000
0aaa

#41000
1aaa
b10001 aac

#42000
0aaa

#43000
1aaa
b10010 aac

#44000
0aaa

#45000
1aaa
b10011 aac

#46000
0aaa

#47000
1aaa
b10100 aac

#48000
0aaa

#49000
1aaa
b10101 aac

#50000
0aaa

#51000
1aaa
b10110 aac

#52000
0aaa

#53000
1aaa
b10111 aac

#54000
0aaa

#55000
1aaa
b11000 aac

#56000
0aaa

#57000
1aaa
b11001 aac

#58000
0aaa

#59000
1aaa
b11010 aac

#60000
0aaa

#61000
1aaa
b11011 aac

#62000
0aaa

#63000
1aaa
b11100 aac

#64000
0aaa

#65000
1aaa
b11101 aac

#66000
0aaa

#67000
1aaa
b11110 aac

#68000
0aaa

#69000
1aaa
b11111 aac

#70000
0aaa

#71000
1aaa
b100000 aac

#72000
0aaa

#73000
1aaa
b100001 aac

#74000
0aaa

#75000
1aaa
b100010 aac

#76000
0aaa

#77000
1aaa
b100011 aac

#78000
0aaa

#79000
1aaa
b100100 aac

#80000
0aaa

#81000
1aaa
b100101 aac

#82000
0aaa

#83000
1aaa
b100110 aac

#84000
0aaa

#85000
1aaa
b100111 aac

#86000
0aaa

#87000
1aaa
b101000 aac

#88000
0aaa

#89000
1aaa
b101001 aac

#90000
0aaa

#91000
1aaa
b101010 aac

#92000
0aaa

#93000
1aaa
b101011 aac

#94000
0aaa

#95000
1aaa
b101100 aac

#96000
0aaa

#97000
1aaa
b101101 aac

#98000
0aaa

#99000
1aaa
b101110 aac

#100000
0aaa

#101000
1aaa
b101111 aac

#102000
0aaa

#103000
1aaa
b110000 aac

#104000
0aaa

#105000
1aaa
b110001 aac

#106000
0aaa

#107000
1aaa
b110010 aac

#108000
0aaa

#109000
1aaa
b110011 aac

#110000
0aaa

#111000
1aaa
b110100 aac

#112000
0aaa

#113000
1aaa
b110101 aac

#114000
0aaa

#115000
1aaa
b110110 aac

#116000
0aaa

#117000
1aaa
b110111 aac

#118000
0aaa

#119000
1aaa
b111000 aac

#120000
0aaa

#121000
1aaa
b111001 aac

#122000
0aaa

#123000
1aaa
b111010 aac

#124000
0aaa

#125000
1aaa
b111011 aac

#126000
0aaa

#127000
1aaa
b111100 aac

#128000
0aaa

#129000
1aaa
b111101 aac

#130000
0aaa

#131000
1aaa
b111110 aac

#132000
0aaa

#133000
1aaa
b111111 aac

#134000
0aaa

#135000
1aaa
b1000000 aac

#136000
0aaa

#137000
1aaa
b1000001 aac

#138000
0aaa

#139000
1aaa
b1000010 aac

#140000
0aaa

#141000
1aaa
b1000011 aac

#142000
0aaa

#143000
1aaa
b1000100 aac

#144000
0aaa

#145000
1aaa
b1000101 aac

#146000
0aaa

#147000
1aaa
b1000110 aac

#148000
0aaa

#149000
1aaa
b1000111 aac

#150000
0aaa

#151000
1aaa
b1001000 aac

#152000
0aaa

#153000
1aaa
b1001001 aac

#154000
0aaa

#155000
1aaa
b1001010 aac

#156000
0aaa

#157000
1aaa
b1001011 aac

#158000
0aaa

#159000
1aaa
b1001100 aac

#160000
0aaa

#161000
1aaa
b1001101 aac

#162000
0aaa

#163000
1aaa
b1001110 aac

#164000
0aaa

#165000
1aaa
b1001111 aac

#166000
0aaa

#167000
1aaa
b1010000 aac

#168000
0aaa

#169000
1aaa
b1010001 aac

#170000
0aaa

#171000
1aaa
b1010010 aac

#172000
0aaa

#173000
1aaa
b1010011 aac

#174000
0aaa

#175000
1aaa
b1010100 aac

#176000
0aaa

#177000
1aaa
b1010101 aac

#178000
0aaa

#179000
1aaa
b1010110 aac

#180000
0aaa

#181000
1aaa
b1010111 aac

#182000
0aaa

#183000
1aaa
b1011000 aac

#184000
0aaa

#185000
1aaa
b1011001 aac

#186000
0aaa

#187000
1aaa
b1011010 aac

#188000
0aaa

#189000
1aaa
b1011011 aac

#190000
0aaa

#191000
1aaa
b1011100 aac

#192000
0aaa

#193000
1aaa
b1011101 aac

#194000
0aaa

#195000
1aaa
b1011110 aac

#196000
0aaa

#197000
1aaa
b1011111 aac

#198000
0aaa

#199000
1aaa
b1100000 aac

#200000
0aaa

#201000
1aaa
b1100001 aac

#202000
0aaa

#203000
1aaa
b1100010 aac

#204000
0aaa

#205000
1aaa
b1100011 aac

#206000
0aaa

#207000
1aaa
b1100100 aac

#208000
0aaa

#209000
1aaa
b1100101 aac

#210000
0aaa

#211000
1aaa
b1100110 aac

#212000
0aaa

#213000
1aaa
b1100111 aac

#214000
0aaa

#215000
1aaa
b1101000 aac

#216000
0aaa

#217000
1aaa
b1101001 aac

#218000
0aaa

#219000
1aaa
b1101010 aac

#220000
0aaa

#221000
1aaa
b1101011 aac

#222000
0aaa

#223000
1aaa
b1101100 aac

#224000
0aaa

#225000
1aaa
b1101101 aac

#226000
0aaa

#227000
1aaa
b1101110 aac

#228000
0aaa

#229000
1aaa
b1101111 aac

#230000
0aaa

#231000
1aaa
b1110000 aac

#232000
0aaa

#233000
1aaa
b1110001 aac

#234000
0aaa

#235000
1aaa
b1110010 aac

#236000
0aaa

#237000
1aaa
b1110011 aac

#238000
0aaa

#239000
1aaa
b1110100 aac

#240000
0aaa

#241000
1aaa
b1110101 aac

#242000
0aaa

#243000
1aaa
b1110110 aac

#244000
0aaa

#245000
1aaa
b1110111 aac

#246000
0aaa

#247000
1aaa
b1111000 aac

#248000
0aaa

#249000
1aaa
b1111001 aac

#250000
0aaa

#251000
1aaa
b1111010 aac

#252000
0aaa

#253000
1aaa
b1111011 aac

#254000
0aaa

#255000
1aaa
b1111100 aac

#256000
0aaa

#257000
1aaa
b1111101 aac

#258000
0aaa

#259000
1aaa
b1111110 aac

#260000
0aaa

#261000
1aaa
b1111111 aac

#262000
0aaa

#263000
1aaa
b0 aac

#264000
0aaa

#265000
1aaa
b1 aac

#266000
0aaa

#267000
1aaa
b10 aac

#268000
0aaa

#269000
1aaa
b11 aac

#270000
0aaa

#271000
1aaa
b100 aac

#272000
0aaa

#273000
1aaa
b101 aac

#274000
0aaa

#275000
1aaa
b110 aac

#276000
0aaa

#277000
1aaa
b111 aac

#278000
0aaa

#279000
1aaa
b1000 aac

#280000
0aaa

#281000
1aaa
b1001 aac

#282000
0aaa

#283000
1aaa
b1010 aac

#284000
0aaa

#285000
1aaa
b1011 aac

#286000
0aaa

#287000
1aaa
b1100 aac

#288000
0aaa

#289000
1aaa
b1101 aac

#290000
0aaa

#291000
1aaa
b1110 aac

#292000
0aaa

#293000
1aaa
b1111 aac

#294000
0aaa

#295000
1aaa
b10000 aac

#296000
0aaa

#297000
1aaa
b10001 aac

#298000
0aaa

#299000
1aaa
b10010 aac

#300000
0aaa

#301000
1aaa
b10011 aac

#302000
0aaa

#303000
1aaa
b10100 aac

#304000
0aaa

#305000
1aaa
b10101 aac

#306000
0aaa

#307000
1aaa
b10110 aac

#308000
0aaa

#309000
1aaa
b10111 aac

#310000
0aaa

#311000
1aaa
b11000 aac

